\relax 
\providecommand\babel@aux[2]{}
\@nameuse{bbl@beforestart}
\catcode `:\active 
\catcode `;\active 
\catcode `!\active 
\catcode `?\active 
\babel@aux{french}{}
\@writefile{toc}{\contentsline {section}{\numberline {1}Problème de Helmholtz 1D}{1}{}\protected@file@percent }
\@writefile{toc}{\contentsline {subsection}{\numberline {1.1}Problème global}{1}{}\protected@file@percent }
\newlabel{eq1}{{1}{1}}
\@writefile{toc}{\contentsline {subsection}{\numberline {1.2}Décomposition de domaine}{1}{}\protected@file@percent }
\@writefile{toc}{\contentsline {paragraph}{}{1}{}\protected@file@percent }
\citation{DDHW}
\newlabel{eq2}{{2}{2}}
\@writefile{toc}{\contentsline {subsection}{\numberline {1.3}Cas particulier $f=0$}{2}{}\protected@file@percent }
\@writefile{toc}{\contentsline {subsubsection}{\numberline {1.3.1}Raccord des traces Robin}{2}{}\protected@file@percent }
\newlabel{eq5}{{4}{3}}
\newlabel{eq6}{{5}{3}}
\@writefile{toc}{\contentsline {subsubsection}{\numberline {1.3.2}Opérateur Dirichlet to Neumann}{3}{}\protected@file@percent }
\@writefile{toc}{\contentsline {subsubsection}{\numberline {1.3.3}Expression de l'opérateur de scattering local en fonction de l'opérateur Dirichlet to Neumann}{4}{}\protected@file@percent }
\@writefile{toc}{\contentsline {subsection}{\numberline {1.4}Méthode des éléments finis}{5}{}\protected@file@percent }
\@writefile{toc}{\contentsline {subsubsection}{\numberline {1.4.1}Méthode de Galerkin}{5}{}\protected@file@percent }
\newlabel{eq3}{{6}{5}}
\newlabel{eq4}{{7}{5}}
\@writefile{toc}{\contentsline {subsubsection}{\numberline {1.4.2}Éléments finis de Lagrange $\mathbb  {P}_2$}{5}{}\protected@file@percent }
\@writefile{toc}{\contentsline {paragraph}{}{6}{}\protected@file@percent }
\@writefile{toc}{\contentsline {subsubsection}{\numberline {1.4.3}Assemblage de la matrice des éléments finis}{6}{}\protected@file@percent }
\bibcite{DDHW}{1}
\gdef \@abspage@last{7}
