# Fdb version 3
["pdflatex"] 1615982009 "c:/Users/micha/Documents/Travail/stage2021/papiers/tex/Rapport.tex" "c:/Users/micha/Documents/Travail/stage2021/papiers/tex/Rapport.pdf" "Rapport" 1618825902
  "C:/Users/micha/AppData/Local/MiKTeX/fonts/pk/ljfour/jknappen/ec/dpi600/ecbx1000.pk" 1614003092 25420 33d9571030231ad3a108b4c1d4778662 ""
  "C:/Users/micha/AppData/Local/MiKTeX/fonts/pk/ljfour/jknappen/ec/dpi600/ecbx1200.pk" 1614017024 31952 fd117df5cb1cae9ef410cc4e48628662 ""
  "C:/Users/micha/AppData/Local/MiKTeX/fonts/pk/ljfour/jknappen/ec/dpi600/ecbx1440.pk" 1613997510 40136 9c3d7da56452058dc3f7e7008cb8a22d ""
  "C:/Users/micha/AppData/Local/MiKTeX/fonts/pk/ljfour/jknappen/ec/dpi600/ecrm1000.pk" 1613997453 23808 a1ab6294c8f8bc40453f666e4ff3f390 ""
  "C:/Users/micha/AppData/Local/MiKTeX/fonts/pk/ljfour/jknappen/ec/dpi600/ecti1000.pk" 1614018250 31892 8aedb18d51dd5d60d956a16e4b570c70 ""
  "C:/Users/micha/AppData/Local/MiKTeX/fonts/pk/ljfour/public/bbm/dpi600/bbm10.pk" 1614083103 6984 fe26579357f4148310fff839219dab91 ""
  "C:/Users/micha/AppData/Local/MiKTeX/fonts/tfm/public/bbm/bbm10.tfm" 1614083100 560 39fd35b5e4a6aca3672660cc548ba860 ""
  "C:/Users/micha/AppData/Local/MiKTeX/fonts/tfm/public/bbm/bbm5.tfm" 1614083102 556 9c04e2d7f25768427a52589d484d3199 ""
  "C:/Users/micha/AppData/Local/MiKTeX/fonts/tfm/public/bbm/bbm7.tfm" 1614083101 560 ab71d518408103034050efd8ebc8a16a ""
  "C:/Users/micha/AppData/Local/MiKTeX/miktex/data/le/pdftex/pdflatex.fmt" 1613997280 9407463 733e30fb70be1b2935e50b3f2616b308 ""
  "C:/Users/micha/AppData/Local/MiKTeX/pdftex/config/pdftex.map" 1614947856 80909 eab91d9745dd2edfd62a31d53cd5fe15 ""
  "C:/Users/micha/AppData/Local/Programs/MiKTeX/fonts/tfm/jknappen/ec/ecbx1000.tfm" 993061956 3200 328792ff19833a39406f06fa0555a6dc ""
  "C:/Users/micha/AppData/Local/Programs/MiKTeX/fonts/tfm/jknappen/ec/ecbx1200.tfm" 993061958 3200 b8d69bc738e5ef3e08cefeef3109ff56 ""
  "C:/Users/micha/AppData/Local/Programs/MiKTeX/fonts/tfm/jknappen/ec/ecbx1440.tfm" 993061960 3196 0b37fa3083e15c57cfa8c4ff52f2807a ""
  "C:/Users/micha/AppData/Local/Programs/MiKTeX/fonts/tfm/jknappen/ec/ecrm0500.tfm" 993062114 3160 7643a152c0e9200a0a8161b2bb3a452d ""
  "C:/Users/micha/AppData/Local/Programs/MiKTeX/fonts/tfm/jknappen/ec/ecrm0700.tfm" 993062116 3168 c739b83da3134ef1007979877c1089cf ""
  "C:/Users/micha/AppData/Local/Programs/MiKTeX/fonts/tfm/jknappen/ec/ecrm1000.tfm" 993062122 3148 7e594c8240c71e432203f65ab5f95a51 ""
  "C:/Users/micha/AppData/Local/Programs/MiKTeX/fonts/tfm/jknappen/ec/ecrm1200.tfm" 993062126 3152 4850ff0163852b7fab34bd55e1197f28 ""
  "C:/Users/micha/AppData/Local/Programs/MiKTeX/fonts/tfm/jknappen/ec/ecrm1440.tfm" 993062128 3168 3bd7b08ba4330af81521911744311212 ""
  "C:/Users/micha/AppData/Local/Programs/MiKTeX/fonts/tfm/jknappen/ec/ecti1000.tfm" 993062320 2840 5606e1a681c23005308de9d61c09a8ff ""
  "C:/Users/micha/AppData/Local/Programs/MiKTeX/fonts/tfm/public/amsfonts/cmextra/cmex7.tfm" 1233955448 1004 54797486969f23fa377b128694d548df ""
  "C:/Users/micha/AppData/Local/Programs/MiKTeX/fonts/tfm/public/amsfonts/cmextra/cmex8.tfm" 1233955448 988 bdf658c3bfc2d96d3c8b02cfc1c94c20 ""
  "C:/Users/micha/AppData/Local/Programs/MiKTeX/fonts/tfm/public/amsfonts/symbols/msam10.tfm" 1233955454 916 f87d7c45f9c908e672703b83b72241a3 ""
  "C:/Users/micha/AppData/Local/Programs/MiKTeX/fonts/tfm/public/amsfonts/symbols/msam5.tfm" 1233955454 924 9904cf1d39e9767e7a3622f2a125a565 ""
  "C:/Users/micha/AppData/Local/Programs/MiKTeX/fonts/tfm/public/amsfonts/symbols/msam7.tfm" 1233955454 928 2dc8d444221b7a635bb58038579b861a ""
  "C:/Users/micha/AppData/Local/Programs/MiKTeX/fonts/tfm/public/amsfonts/symbols/msbm10.tfm" 1233955454 908 2921f8a10601f252058503cc6570e581 ""
  "C:/Users/micha/AppData/Local/Programs/MiKTeX/fonts/tfm/public/amsfonts/symbols/msbm5.tfm" 1233955454 940 75ac932a52f80982a9f8ea75d03a34cf ""
  "C:/Users/micha/AppData/Local/Programs/MiKTeX/fonts/tfm/public/amsfonts/symbols/msbm7.tfm" 1233955454 940 228d6584342e91276bf566bcf9716b83 ""
  "C:/Users/micha/AppData/Local/Programs/MiKTeX/fonts/tfm/public/cm/cmex10.tfm" 1136768653 992 662f679a0b3d2d53c1b94050fdaa3f50 ""
  "C:/Users/micha/AppData/Local/Programs/MiKTeX/fonts/tfm/public/cm/cmmi12.tfm" 1136768653 1524 4414a8315f39513458b80dfc63bff03a ""
  "C:/Users/micha/AppData/Local/Programs/MiKTeX/fonts/tfm/public/cm/cmmi6.tfm" 1136768653 1512 f21f83efb36853c0b70002322c1ab3ad ""
  "C:/Users/micha/AppData/Local/Programs/MiKTeX/fonts/tfm/public/cm/cmmi8.tfm" 1136768653 1520 eccf95517727cb11801f4f1aee3a21b4 ""
  "C:/Users/micha/AppData/Local/Programs/MiKTeX/fonts/tfm/public/cm/cmr12.tfm" 1136768653 1288 655e228510b4c2a1abe905c368440826 ""
  "C:/Users/micha/AppData/Local/Programs/MiKTeX/fonts/tfm/public/cm/cmr6.tfm" 1136768653 1300 b62933e007d01cfd073f79b963c01526 ""
  "C:/Users/micha/AppData/Local/Programs/MiKTeX/fonts/tfm/public/cm/cmr8.tfm" 1136768653 1292 21c1c5bfeaebccffdb478fd231a0997d ""
  "C:/Users/micha/AppData/Local/Programs/MiKTeX/fonts/tfm/public/cm/cmsy10.tfm" 1136768653 1124 6c73e740cf17375f03eec0ee63599741 ""
  "C:/Users/micha/AppData/Local/Programs/MiKTeX/fonts/tfm/public/cm/cmsy6.tfm" 1136768653 1116 933a60c408fc0a863a92debe84b2d294 ""
  "C:/Users/micha/AppData/Local/Programs/MiKTeX/fonts/tfm/public/cm/cmsy8.tfm" 1136768653 1120 8b7d695260f3cff42e636090a8002094 ""
  "C:/Users/micha/AppData/Local/Programs/MiKTeX/fonts/type1/public/amsfonts/cm/cmex10.pfb" 1247596667 30251 6afa5cb1d0204815a708a080681d4674 ""
  "C:/Users/micha/AppData/Local/Programs/MiKTeX/fonts/type1/public/amsfonts/cm/cmmi10.pfb" 1247596667 36299 5f9df58c2139e7edcf37c8fca4bd384d ""
  "C:/Users/micha/AppData/Local/Programs/MiKTeX/fonts/type1/public/amsfonts/cm/cmmi12.pfb" 1247596667 36741 0ee9e374ec3e30da87cdfb0ea3575226 ""
  "C:/Users/micha/AppData/Local/Programs/MiKTeX/fonts/type1/public/amsfonts/cm/cmmi5.pfb" 1247596667 37912 07513ec114ac737ab54cea0152f4424b ""
  "C:/Users/micha/AppData/Local/Programs/MiKTeX/fonts/type1/public/amsfonts/cm/cmmi7.pfb" 1247596667 36281 c355509802a035cadc5f15869451dcee ""
  "C:/Users/micha/AppData/Local/Programs/MiKTeX/fonts/type1/public/amsfonts/cm/cmr10.pfb" 1247596667 35752 024fb6c41858982481f6968b5fc26508 ""
  "C:/Users/micha/AppData/Local/Programs/MiKTeX/fonts/type1/public/amsfonts/cm/cmr12.pfb" 1247596667 32722 d7379af29a190c3f453aba36302ff5a9 ""
  "C:/Users/micha/AppData/Local/Programs/MiKTeX/fonts/type1/public/amsfonts/cm/cmr5.pfb" 1247596667 31809 8670ca339bf94e56da1fc21c80635e2a ""
  "C:/Users/micha/AppData/Local/Programs/MiKTeX/fonts/type1/public/amsfonts/cm/cmr7.pfb" 1247596667 32762 7fee39e011c23b3589931effd97b9702 ""
  "C:/Users/micha/AppData/Local/Programs/MiKTeX/fonts/type1/public/amsfonts/cm/cmsy10.pfb" 1247596667 32569 5e5ddc8df908dea60932f3c484a54c0d ""
  "C:/Users/micha/AppData/Local/Programs/MiKTeX/fonts/type1/public/amsfonts/cm/cmsy5.pfb" 1247596666 32915 7bf7720c61a5b3a7ff25b0964421c9b6 ""
  "C:/Users/micha/AppData/Local/Programs/MiKTeX/fonts/type1/public/amsfonts/cm/cmsy7.pfb" 1247596666 32716 08e384dc442464e7285e891af9f45947 ""
  "C:/Users/micha/AppData/Local/Programs/MiKTeX/fonts/type1/public/amsfonts/symbols/msbm10.pfb" 1247596673 34694 870c211f62cb72718a00e353f14f254d ""
  "C:/Users/micha/AppData/Local/Programs/MiKTeX/tex/context/base/mkii/supp-pdf.mkii" 1580393758 71627 94eb9990bed73c364d7f53f960cc8c5b ""
  "C:/Users/micha/AppData/Local/Programs/MiKTeX/tex/generic/babel-french/french.ldf" 1602320629 69686 4c1daff3b397362294827ad011863ee0 ""
  "C:/Users/micha/AppData/Local/Programs/MiKTeX/tex/generic/babel/babel.def" 1611682125 117888 66b7eb0f9cd7bd253f76713fb2e2ee4a ""
  "C:/Users/micha/AppData/Local/Programs/MiKTeX/tex/generic/babel/babel.sty" 1611682125 37868 ba045e7d3943071ea1a8258e20cd3f09 ""
  "C:/Users/micha/AppData/Local/Programs/MiKTeX/tex/generic/babel/txtbabel.def" 1611682125 5230 84624d139fa443f96294434bccf82f8c ""
  "C:/Users/micha/AppData/Local/Programs/MiKTeX/tex/generic/genmisc/kbordermatrix.sty" 1361469173 5523 bfa1a1f639d04118419d64fe784088b4 ""
  "C:/Users/micha/AppData/Local/Programs/MiKTeX/tex/generic/pgf/basiclayer/pgfcore.code.tex" 1609098799 992 855ff26741653ab54814101ca36e153c ""
  "C:/Users/micha/AppData/Local/Programs/MiKTeX/tex/generic/pgf/basiclayer/pgfcorearrows.code.tex" 1609098799 43820 1fef971b75380574ab35a0d37fd92608 ""
  "C:/Users/micha/AppData/Local/Programs/MiKTeX/tex/generic/pgf/basiclayer/pgfcoreexternal.code.tex" 1609098799 19324 f4e4c6403dd0f1605fd20ed22fa79dea ""
  "C:/Users/micha/AppData/Local/Programs/MiKTeX/tex/generic/pgf/basiclayer/pgfcoregraphicstate.code.tex" 1609098799 6038 ccb406740cc3f03bbfb58ad504fe8c27 ""
  "C:/Users/micha/AppData/Local/Programs/MiKTeX/tex/generic/pgf/basiclayer/pgfcoreimage.code.tex" 1609098799 6944 e12f8f7a7364ddf66f93ba30fb3a3742 ""
  "C:/Users/micha/AppData/Local/Programs/MiKTeX/tex/generic/pgf/basiclayer/pgfcorelayers.code.tex" 1609098799 4883 42daaf41e27c3735286e23e48d2d7af9 ""
  "C:/Users/micha/AppData/Local/Programs/MiKTeX/tex/generic/pgf/basiclayer/pgfcoreobjects.code.tex" 1609098799 2544 8c06d2a7f0f469616ac9e13db6d2f842 ""
  "C:/Users/micha/AppData/Local/Programs/MiKTeX/tex/generic/pgf/basiclayer/pgfcorepathconstruct.code.tex" 1609098799 44195 5e390c414de027626ca5e2df888fa68d ""
  "C:/Users/micha/AppData/Local/Programs/MiKTeX/tex/generic/pgf/basiclayer/pgfcorepathprocessing.code.tex" 1609098799 17311 2ef6b2e29e2fc6a2fc8d6d652176e257 ""
  "C:/Users/micha/AppData/Local/Programs/MiKTeX/tex/generic/pgf/basiclayer/pgfcorepathusage.code.tex" 1609098799 21302 788a79944eb22192a4929e46963a3067 ""
  "C:/Users/micha/AppData/Local/Programs/MiKTeX/tex/generic/pgf/basiclayer/pgfcorepatterns.code.tex" 1609098799 9690 01feb7cde25d4293ef36eef45123eb80 ""
  "C:/Users/micha/AppData/Local/Programs/MiKTeX/tex/generic/pgf/basiclayer/pgfcorepoints.code.tex" 1609098799 33335 dd1fa4814d4e51f18be97d88bf0da60c ""
  "C:/Users/micha/AppData/Local/Programs/MiKTeX/tex/generic/pgf/basiclayer/pgfcorequick.code.tex" 1609098799 2965 4c2b1f4e0826925746439038172e5d6f ""
  "C:/Users/micha/AppData/Local/Programs/MiKTeX/tex/generic/pgf/basiclayer/pgfcorerdf.code.tex" 1609098799 5196 2cc249e0ee7e03da5f5f6589257b1e5b ""
  "C:/Users/micha/AppData/Local/Programs/MiKTeX/tex/generic/pgf/basiclayer/pgfcorescopes.code.tex" 1609098799 20726 d4c8db1e2e53b72721d29916314a22ea ""
  "C:/Users/micha/AppData/Local/Programs/MiKTeX/tex/generic/pgf/basiclayer/pgfcoreshade.code.tex" 1609098799 35249 abd4adf948f960299a4b3d27c5dddf46 ""
  "C:/Users/micha/AppData/Local/Programs/MiKTeX/tex/generic/pgf/basiclayer/pgfcoretransformations.code.tex" 1609098799 21989 fdc867d05d228316de137a9fc5ec3bbe ""
  "C:/Users/micha/AppData/Local/Programs/MiKTeX/tex/generic/pgf/basiclayer/pgfcoretransparency.code.tex" 1609098799 8893 e851de2175338fdf7c17f3e091d94618 ""
  "C:/Users/micha/AppData/Local/Programs/MiKTeX/tex/generic/pgf/frontendlayer/tikz/libraries/tikzlibrarymatrix.code.tex" 1609098799 4202 b95061a2334c704bfa941fb8d5c0d0a2 ""
  "C:/Users/micha/AppData/Local/Programs/MiKTeX/tex/generic/pgf/frontendlayer/tikz/libraries/tikzlibrarypositioning.code.tex" 1609098799 3937 3f208572dd82c71103831da976d74f1a ""
  "C:/Users/micha/AppData/Local/Programs/MiKTeX/tex/generic/pgf/frontendlayer/tikz/libraries/tikzlibrarytopaths.code.tex" 1609098799 11518 738408f795261b70ce8dd47459171309 ""
  "C:/Users/micha/AppData/Local/Programs/MiKTeX/tex/generic/pgf/frontendlayer/tikz/tikz.code.tex" 1609098799 188275 555994923a0cb0c4aff9710e303272bb ""
  "C:/Users/micha/AppData/Local/Programs/MiKTeX/tex/generic/pgf/libraries/pgflibraryplothandlers.code.tex" 1609098799 32995 ac577023e12c0e4bd8aa420b2e852d1a ""
  "C:/Users/micha/AppData/Local/Programs/MiKTeX/tex/generic/pgf/math/pgfint.code.tex" 1609098799 3063 8c415c68a0f3394e45cfeca0b65f6ee6 ""
  "C:/Users/micha/AppData/Local/Programs/MiKTeX/tex/generic/pgf/math/pgfmath.code.tex" 1609098799 521 8e224a7af69b7fee4451d1bf76b46654 ""
  "C:/Users/micha/AppData/Local/Programs/MiKTeX/tex/generic/pgf/math/pgfmathcalc.code.tex" 1609098799 13391 84d29568c13bdce4133ab4a214711112 ""
  "C:/Users/micha/AppData/Local/Programs/MiKTeX/tex/generic/pgf/math/pgfmathfloat.code.tex" 1609098799 104935 184ed87524e76d4957860df4ce0cd1c3 ""
  "C:/Users/micha/AppData/Local/Programs/MiKTeX/tex/generic/pgf/math/pgfmathfunctions.base.code.tex" 1609098799 10165 cec5fa73d49da442e56efc2d605ef154 ""
  "C:/Users/micha/AppData/Local/Programs/MiKTeX/tex/generic/pgf/math/pgfmathfunctions.basic.code.tex" 1609098799 28178 41c17713108e0795aac6fef3d275fbca ""
  "C:/Users/micha/AppData/Local/Programs/MiKTeX/tex/generic/pgf/math/pgfmathfunctions.code.tex" 1609098799 9989 c55967bf45126ff9b061fa2ca0c4694f ""
  "C:/Users/micha/AppData/Local/Programs/MiKTeX/tex/generic/pgf/math/pgfmathfunctions.comparison.code.tex" 1609098799 3865 ac538ab80c5cf82b345016e474786549 ""
  "C:/Users/micha/AppData/Local/Programs/MiKTeX/tex/generic/pgf/math/pgfmathfunctions.integerarithmetics.code.tex" 1609098799 3177 27d85c44fbfe09ff3b2cf2879e3ea434 ""
  "C:/Users/micha/AppData/Local/Programs/MiKTeX/tex/generic/pgf/math/pgfmathfunctions.misc.code.tex" 1609098799 10925 139ac69ce3e9a1892add56d0b818cf97 ""
  "C:/Users/micha/AppData/Local/Programs/MiKTeX/tex/generic/pgf/math/pgfmathfunctions.random.code.tex" 1609098799 7854 4176998eeefd8745ac6d2d4bd9c98451 ""
  "C:/Users/micha/AppData/Local/Programs/MiKTeX/tex/generic/pgf/math/pgfmathfunctions.round.code.tex" 1609098799 3379 781797a101f647bab82741a99944a229 ""
  "C:/Users/micha/AppData/Local/Programs/MiKTeX/tex/generic/pgf/math/pgfmathfunctions.trigonometric.code.tex" 1609098799 92405 f515f31275db273f97b9d8f52e1b0736 ""
  "C:/Users/micha/AppData/Local/Programs/MiKTeX/tex/generic/pgf/math/pgfmathparser.code.tex" 1609098799 37376 11cd75aac3da1c1b152b2848f30adc14 ""
  "C:/Users/micha/AppData/Local/Programs/MiKTeX/tex/generic/pgf/math/pgfmathutil.code.tex" 1609098799 8471 c2883569d03f69e8e1cabfef4999cfd7 ""
  "C:/Users/micha/AppData/Local/Programs/MiKTeX/tex/generic/pgf/modules/pgfmodulematrix.code.tex" 1609098799 21201 08d231a2386e2b61d64641c50dc15abd ""
  "C:/Users/micha/AppData/Local/Programs/MiKTeX/tex/generic/pgf/modules/pgfmoduleplot.code.tex" 1609098799 16121 346f9013d34804439f7436ff6786cef7 ""
  "C:/Users/micha/AppData/Local/Programs/MiKTeX/tex/generic/pgf/modules/pgfmoduleshapes.code.tex" 1609098799 43260 c5ced91ac9ecf66ab0674d57bda14c1f ""
  "C:/Users/micha/AppData/Local/Programs/MiKTeX/tex/generic/pgf/pgf.revision.tex" 1609098829 465 311958b39a263956b78fd69c4bc8a85c ""
  "C:/Users/micha/AppData/Local/Programs/MiKTeX/tex/generic/pgf/systemlayer/pgf.cfg" 1609098799 926 2963ea0dcf6cc6c0a770b69ec46a477b ""
  "C:/Users/micha/AppData/Local/Programs/MiKTeX/tex/generic/pgf/systemlayer/pgfsys-common-pdf.def" 1609098799 5546 f3f24d7898386cb7daac70bdd2c4d6dc ""
  "C:/Users/micha/AppData/Local/Programs/MiKTeX/tex/generic/pgf/systemlayer/pgfsys-pdftex.def" 1609098799 12601 4786e597516eddd82097506db7cfa098 ""
  "C:/Users/micha/AppData/Local/Programs/MiKTeX/tex/generic/pgf/systemlayer/pgfsys.code.tex" 1609098799 60544 7aef020a49f066dc86a26e7719af2a98 ""
  "C:/Users/micha/AppData/Local/Programs/MiKTeX/tex/generic/pgf/systemlayer/pgfsysprotocol.code.tex" 1609098799 1896 b8e0ca0ac371d74c0ca05583f6313c91 ""
  "C:/Users/micha/AppData/Local/Programs/MiKTeX/tex/generic/pgf/systemlayer/pgfsyssoftpath.code.tex" 1609098799 7778 53c8b5623d80238f6a20aa1df1868e63 ""
  "C:/Users/micha/AppData/Local/Programs/MiKTeX/tex/generic/pgf/utilities/pgffor.code.tex" 1609098799 23997 a4bed72405fa644418bea7eac2887006 ""
  "C:/Users/micha/AppData/Local/Programs/MiKTeX/tex/generic/pgf/utilities/pgfkeys.code.tex" 1609098799 36938 2b5b0039ae51cc081ebb25d84b8a3408 ""
  "C:/Users/micha/AppData/Local/Programs/MiKTeX/tex/generic/pgf/utilities/pgfkeysfiltered.code.tex" 1609098799 37431 9abe862035de1b29c7a677f3205e3d9f ""
  "C:/Users/micha/AppData/Local/Programs/MiKTeX/tex/generic/pgf/utilities/pgfrcs.code.tex" 1609098799 4494 af17fb7efeafe423710479858e42fa7e ""
  "C:/Users/micha/AppData/Local/Programs/MiKTeX/tex/generic/pgf/utilities/pgfutil-common-lists.tex" 1609098799 7251 fb18c67117e09c64de82267e12cd8aa4 ""
  "C:/Users/micha/AppData/Local/Programs/MiKTeX/tex/generic/pgf/utilities/pgfutil-common.tex" 1609098799 28579 1cdb9cf41947e1e5889d97a41f9bb448 ""
  "C:/Users/micha/AppData/Local/Programs/MiKTeX/tex/generic/pgf/utilities/pgfutil-latex.def" 1609098799 6860 2503857fc7e280acd60acdfa6c8c90c4 ""
  "C:/Users/micha/AppData/Local/Programs/MiKTeX/tex/latex/amscls/amsthm.sty" 1591023609 12594 0d51ac3a545aaaa555021326ff22a6cc ""
  "C:/Users/micha/AppData/Local/Programs/MiKTeX/tex/latex/amsfonts/amsfonts.sty" 1358201372 5949 3f3fd50a8cc94c3d4cbf4fc66cd3df1c ""
  "C:/Users/micha/AppData/Local/Programs/MiKTeX/tex/latex/amsfonts/umsa.fd" 1358201372 961 6518c6525a34feb5e8250ffa91731cff ""
  "C:/Users/micha/AppData/Local/Programs/MiKTeX/tex/latex/amsfonts/umsb.fd" 1358201372 961 d02606146ba5601b5645f987c92e6193 ""
  "C:/Users/micha/AppData/Local/Programs/MiKTeX/tex/latex/amsmath/amsbsy.sty" 1601808549 2283 ca7ce284ab93c8eecdc6029dc5ccbd73 ""
  "C:/Users/micha/AppData/Local/Programs/MiKTeX/tex/latex/amsmath/amsgen.sty" 1601808551 4297 7f6eb9092061a11f87d08ed13515b48d ""
  "C:/Users/micha/AppData/Local/Programs/MiKTeX/tex/latex/amsmath/amsmath.sty" 1601808552 90280 2c21ff5f2e32e1bf714e600924d810db ""
  "C:/Users/micha/AppData/Local/Programs/MiKTeX/tex/latex/amsmath/amsopn.sty" 1601808553 4233 32e6abd27229755a83a8b7f18e583890 ""
  "C:/Users/micha/AppData/Local/Programs/MiKTeX/tex/latex/amsmath/amstext.sty" 1601808553 2508 8ff93b1137020e8f21930562a874ae66 ""
  "C:/Users/micha/AppData/Local/Programs/MiKTeX/tex/latex/arabi/bblopts.cfg" 1139965200 902 c30e5c373bc58bde21f8f63a3091626f ""
  "C:/Users/micha/AppData/Local/Programs/MiKTeX/tex/latex/base/article.cls" 1610124346 20145 aad8c3dd3bc36e260347b84002182bc2 ""
  "C:/Users/micha/AppData/Local/Programs/MiKTeX/tex/latex/base/fontenc.sty" 1610124346 4947 8cb7717f0cc771eca0fda15160c7fee9 ""
  "C:/Users/micha/AppData/Local/Programs/MiKTeX/tex/latex/base/inputenc.sty" 1610124346 5050 0d3b77275060ca09a40635b830c3c904 ""
  "C:/Users/micha/AppData/Local/Programs/MiKTeX/tex/latex/base/size10.clo" 1610124346 8449 a72d5d4e612221b46000c3d71724e0ef ""
  "C:/Users/micha/AppData/Local/Programs/MiKTeX/tex/latex/bbm/bbm.sty" 1227198729 1684 1e0d54b051369c3f457872824cac219f ""
  "C:/Users/micha/AppData/Local/Programs/MiKTeX/tex/latex/bbm/ubbm.fd" 1227198729 2187 62f898e14cad3357133b5cbf57b61c0a ""
  "C:/Users/micha/AppData/Local/Programs/MiKTeX/tex/latex/blkarray/blkarray.sty" 1425038238 72396 c58b7130fcef93ea5c7323ef15cc4bc6 ""
  "C:/Users/micha/AppData/Local/Programs/MiKTeX/tex/latex/carlisle/scalefnt.sty" 1522607821 1360 df2086bf924b14b72d6121fe9502fcdb ""
  "C:/Users/micha/AppData/Local/Programs/MiKTeX/tex/latex/epstopdf-pkg/epstopdf-base.sty" 1580045142 14411 d1306dcf79a944f6988e688c1785f9ce ""
  "C:/Users/micha/AppData/Local/Programs/MiKTeX/tex/latex/graphics-cfg/color.cfg" 1465894292 1213 620bba36b25224fa9b7e1ccb4ecb76fd ""
  "C:/Users/micha/AppData/Local/Programs/MiKTeX/tex/latex/graphics-cfg/graphics.cfg" 1465894292 1224 978390e9c2234eab29404bc21b268d1e ""
  "C:/Users/micha/AppData/Local/Programs/MiKTeX/tex/latex/graphics-def/pdftex.def" 1601878198 19103 48d29b6e2a64cb717117ef65f107b404 ""
  "C:/Users/micha/AppData/Local/Programs/MiKTeX/tex/latex/graphics/graphics.sty" 1601745126 18881 a8c6a275b34ab6717ceeb8fa04b104e2 ""
  "C:/Users/micha/AppData/Local/Programs/MiKTeX/tex/latex/graphics/graphicx.sty" 1601745126 8167 20fdfdd783821971c55bc8ee918cbe63 ""
  "C:/Users/micha/AppData/Local/Programs/MiKTeX/tex/latex/graphics/keyval.sty" 1601745126 2677 e3b24ff953e5b58d924f163d25380312 ""
  "C:/Users/micha/AppData/Local/Programs/MiKTeX/tex/latex/graphics/trig.sty" 1601745126 4093 d7fa7d81d2870d509d25b17d0245e735 ""
  "C:/Users/micha/AppData/Local/Programs/MiKTeX/tex/latex/l3backend/l3backend-pdftex.def" 1613662212 27164 09c696e2ed5c5986662c62a27622e9cd ""
  "C:/Users/micha/AppData/Local/Programs/MiKTeX/tex/latex/latex-tools/calc.sty" 1602847618 10505 5efd55f2010055e7b7875afd6a75be82 ""
  "C:/Users/micha/AppData/Local/Programs/MiKTeX/tex/latex/mathtools/mathtools.sty" 1585058146 55731 4347f70fb23a75dbacb3c5fd21dd2675 ""
  "C:/Users/micha/AppData/Local/Programs/MiKTeX/tex/latex/mathtools/mhsetup.sty" 1585058146 5437 39f2bba90502a381bd48d78339c1a5f0 ""
  "C:/Users/micha/AppData/Local/Programs/MiKTeX/tex/latex/pgf/basiclayer/pgf.sty" 1609098799 1090 bae35ef70b3168089ef166db3e66f5b2 ""
  "C:/Users/micha/AppData/Local/Programs/MiKTeX/tex/latex/pgf/basiclayer/pgfcore.sty" 1609098799 410 615550c46f918fcbee37641b02a862d9 ""
  "C:/Users/micha/AppData/Local/Programs/MiKTeX/tex/latex/pgf/compatibility/pgfcomp-version-0-65.sty" 1609098799 21013 f4ff83d25bb56552493b030f27c075ae ""
  "C:/Users/micha/AppData/Local/Programs/MiKTeX/tex/latex/pgf/compatibility/pgfcomp-version-1-18.sty" 1609098799 989 c49c8ae06d96f8b15869da7428047b1e ""
  "C:/Users/micha/AppData/Local/Programs/MiKTeX/tex/latex/pgf/frontendlayer/tikz.sty" 1609098799 339 c2e180022e3afdb99c7d0ea5ce469b7d ""
  "C:/Users/micha/AppData/Local/Programs/MiKTeX/tex/latex/pgf/math/pgfmath.sty" 1609098799 306 c56a323ca5bf9242f54474ced10fca71 ""
  "C:/Users/micha/AppData/Local/Programs/MiKTeX/tex/latex/pgf/systemlayer/pgfsys.sty" 1609098799 443 8c872229db56122037e86bcda49e14f3 ""
  "C:/Users/micha/AppData/Local/Programs/MiKTeX/tex/latex/pgf/utilities/pgffor.sty" 1609098799 348 ee405e64380c11319f0e249fed57e6c5 ""
  "C:/Users/micha/AppData/Local/Programs/MiKTeX/tex/latex/pgf/utilities/pgfkeys.sty" 1609098799 274 5ae372b7df79135d240456a1c6f2cf9a ""
  "C:/Users/micha/AppData/Local/Programs/MiKTeX/tex/latex/pgf/utilities/pgfrcs.sty" 1609098799 325 f9f16d12354225b7dd52a3321f085955 ""
  "C:/Users/micha/AppData/Local/Programs/MiKTeX/tex/latex/xcolor/xcolor.sty" 1463135581 57049 34128738f682d033422ca125f82e5d62 ""
  "Rapport.aux" 1615985612 1937 b516406af90d597d5ac3ab09f3c805ff "pdflatex"
  "Rapport.tex" 1618825901 21598 c803c174607c18841aa921ad11aa6e32 ""
  "c:/Users/micha/Documents/Travail/stage2021/papiers/tex/Rapport.aux" 1615985612 1937 b516406af90d597d5ac3ab09f3c805ff ""
  "c:/Users/micha/Documents/Travail/stage2021/papiers/tex/Rapport.tex" 1618825901 21598 c803c174607c18841aa921ad11aa6e32 ""
  (generated)
  "Rapport.aux"
  "Rapport.log"
  "c:/Users/micha/Documents/Travail/stage2021/papiers/tex/Rapport.log"
  "c:/Users/micha/Documents/Travail/stage2021/papiers/tex/Rapport.pdf"
  "Rapport.pdf"
