if(!settings.multipleView) settings.batchView=false;
settings.tex="pdflatex";
defaultfilename="presentation-1";
if(settings.render < 0) settings.render=4;
settings.outformat="";
settings.inlineimage=true;
settings.embed=true;
settings.toolbar=false;
viewportmargin=(2,2);

size(150,100);
pair A=(0,0), B=(0.65,-0.6), C=(1.5,-0.2), D=(1.6, 0.1), E=(1.2, 0.3), F=(0.7, 0.2), G=(0.3, 0.1);
draw(A..B..C..D..E..F..G..cycle);
label("$\Omega$",(0.8,-0.2));
label("$\partial \Omega$",(0.9,-0.7));
