This is BibTeX, Version 0.99d
Capacity: max_strings=200000, hash_size=200000, hash_prime=170003
The top-level auxiliary file: presentation.aux
Reallocating 'name_of_file' (item size: 1) to 6 items.
The style file: plain.bst
Reallocating 'name_of_file' (item size: 1) to 7 items.
Database file #1: biblio.bib
Warning--I'm ignoring despr1991's extra "note" field
--line 15 of file biblio.bib
Warning--empty school in despr1991
You've used 4 entries,
            2118 wiz_defined-function locations,
            522 strings with 4749 characters,
and the built_in function-call counts, 947 in all, are:
= -- 92
> -- 34
< -- 0
+ -- 14
- -- 10
* -- 55
:= -- 176
add.period$ -- 12
call.type$ -- 4
change.case$ -- 16
chr.to.int$ -- 0
cite$ -- 5
duplicate$ -- 36
empty$ -- 78
format.name$ -- 10
if$ -- 189
int.to.chr$ -- 0
int.to.str$ -- 4
missing$ -- 1
newline$ -- 23
num.names$ -- 8
pop$ -- 19
preamble$ -- 1
purify$ -- 13
quote$ -- 0
skip$ -- 27
stack$ -- 0
substring$ -- 41
swap$ -- 4
text.length$ -- 0
text.prefix$ -- 0
top$ -- 0
type$ -- 16
warning$ -- 1
while$ -- 9
width$ -- 5
write$ -- 44
(There were 2 warnings)
