\headcommand {\slideentry {0}{0}{1}{1/1}{}{0}}
\headcommand {\beamer@framepages {1}{1}}
\headcommand {\slideentry {0}{0}{2}{2/2}{}{0}}
\headcommand {\beamer@framepages {2}{2}}
\headcommand {\slideentry {0}{0}{3}{3/3}{}{0}}
\headcommand {\beamer@framepages {3}{3}}
\headcommand {\beamer@sectionpages {1}{3}}
\headcommand {\beamer@subsectionpages {1}{3}}
\headcommand {\sectionentry {1}{Décomposition de domaine}{4}{Décomposition de domaine}{0}}
\headcommand {\slideentry {1}{0}{1}{4/4}{}{0}}
\headcommand {\beamer@framepages {4}{4}}
\headcommand {\slideentry {1}{0}{2}{5/5}{}{0}}
\headcommand {\beamer@framepages {5}{5}}
\headcommand {\slideentry {1}{0}{3}{6/6}{}{0}}
\headcommand {\beamer@framepages {6}{6}}
\headcommand {\slideentry {1}{0}{4}{7/7}{}{0}}
\headcommand {\beamer@framepages {7}{7}}
\headcommand {\slideentry {1}{0}{5}{8/8}{}{0}}
\headcommand {\beamer@framepages {8}{8}}
\headcommand {\beamer@sectionpages {4}{8}}
\headcommand {\beamer@subsectionpages {4}{8}}
\headcommand {\sectionentry {2}{Application au cas monodimensionnel}{9}{Application au cas monodimensionnel}{0}}
\headcommand {\slideentry {2}{0}{1}{9/9}{}{0}}
\headcommand {\beamer@framepages {9}{9}}
\headcommand {\slideentry {2}{0}{2}{10/10}{}{0}}
\headcommand {\beamer@framepages {10}{10}}
\headcommand {\slideentry {2}{0}{3}{11/11}{}{0}}
\headcommand {\beamer@framepages {11}{11}}
\headcommand {\slideentry {2}{0}{4}{12/12}{}{0}}
\headcommand {\beamer@framepages {12}{12}}
\headcommand {\slideentry {2}{0}{5}{13/13}{}{0}}
\headcommand {\beamer@framepages {13}{13}}
\headcommand {\slideentry {2}{0}{6}{14/14}{}{0}}
\headcommand {\beamer@framepages {14}{14}}
\headcommand {\slideentry {2}{0}{7}{15/15}{}{0}}
\headcommand {\beamer@framepages {15}{15}}
\headcommand {\beamer@sectionpages {9}{15}}
\headcommand {\beamer@subsectionpages {9}{15}}
\headcommand {\sectionentry {3}{Résolution numérique}{16}{Résolution numérique}{0}}
\headcommand {\slideentry {3}{0}{1}{16/16}{}{0}}
\headcommand {\beamer@framepages {16}{16}}
\headcommand {\slideentry {3}{0}{2}{17/17}{}{0}}
\headcommand {\beamer@framepages {17}{17}}
\headcommand {\slideentry {3}{0}{3}{18/18}{}{0}}
\headcommand {\beamer@framepages {18}{18}}
\headcommand {\slideentry {3}{0}{4}{19/19}{}{0}}
\headcommand {\beamer@framepages {19}{19}}
\headcommand {\slideentry {3}{0}{5}{20/20}{}{0}}
\headcommand {\beamer@framepages {20}{20}}
\headcommand {\slideentry {3}{0}{6}{21/21}{}{0}}
\headcommand {\beamer@framepages {21}{21}}
\headcommand {\slideentry {3}{0}{7}{22/22}{}{0}}
\headcommand {\beamer@framepages {22}{22}}
\headcommand {\slideentry {3}{0}{8}{23/23}{}{0}}
\headcommand {\beamer@framepages {23}{23}}
\headcommand {\slideentry {3}{0}{9}{24/24}{}{0}}
\headcommand {\beamer@framepages {24}{24}}
\headcommand {\beamer@partpages {1}{24}}
\headcommand {\beamer@subsectionpages {16}{24}}
\headcommand {\beamer@sectionpages {16}{24}}
\headcommand {\beamer@documentpages {24}}
\headcommand {\gdef \inserttotalframenumber {24}}
