\relax 
\providecommand\babel@aux[2]{}
\@nameuse{bbl@beforestart}
\catcode `:\active 
\catcode `;\active 
\catcode `!\active 
\catcode `?\active 
\babel@aux{french}{}
\citation{despr1991}
\citation{collino:inria-00073216}
\citation{lecouvez:tel-01444540}
\citation{collino:inria-00073216}
\citation{claeys2019new}
\citation{book}
\citation{3b2b99a08d6f484ebb4dca85b332b782}
\@writefile{toc}{\contentsline {section}{\numberline {1}Décomposition de domaine : principe et application à l'équation de Helmholtz}{2}{}\protected@file@percent }
\@writefile{toc}{\contentsline {subsection}{\numberline {1.1}Principe général et résultats principaux}{2}{}\protected@file@percent }
\@writefile{lof}{\contentsline {figure}{\numberline {1}{\ignorespaces Décomposition de domaine avec et sans recouvrement\relax }}{2}{}\protected@file@percent }
\newlabel{equivH1}{{1}{2}}
\newlabel{equivHdiv}{{2}{3}}
\@writefile{toc}{\contentsline {subsection}{\numberline {1.2}Cas de l'équation de Helmholtz avec condition de Robin}{4}{}\protected@file@percent }
\newlabel{eqforte}{{1}{4}}
\newlabel{formulationVariationnelle}{{2}{4}}
\newlabel{eqddm}{{3}{4}}
\citation{claeys2020robust}
\@writefile{toc}{\contentsline {section}{\numberline {2}Décomposition de domaine en 1D}{5}{}\protected@file@percent }
\@writefile{toc}{\contentsline {subsection}{\numberline {2.1}Nouveaux espaces de résolution}{5}{}\protected@file@percent }
\@writefile{lof}{\contentsline {figure}{\numberline {2}{\ignorespaces Décomposition de domaine sans recouvrement sur un segment\relax }}{5}{}\protected@file@percent }
\@writefile{lof}{\contentsline {figure}{\numberline {3}{\ignorespaces Illustration de l'espace $\mathbb  {V}(I)$\relax }}{5}{}\protected@file@percent }
\citation{claeys2020robust}
\citation{claeys2020robust}
\@writefile{lof}{\contentsline {figure}{\numberline {4}{\ignorespaces Illustration de l'espace multi-trace $\mathbb  {V}(\Sigma )$\relax }}{6}{}\protected@file@percent }
\@writefile{toc}{\contentsline {subsection}{\numberline {2.2}Opérateur d'échange et de scattering}{6}{}\protected@file@percent }
\newlabel{eqMultitrace}{{4}{6}}
\citation{claeys2020robust}
\citation{claeys2020robust}
\newlabel{propPtSelle}{{6}{7}}
\newlabel{eqMultitrace2}{{5}{7}}
\newlabel{eqDecouplee}{{6}{8}}
\newlabel{eqDecoupleeP}{{7}{9}}
\newlabel{eqSysLin}{{8}{9}}
\newlabel{eqwOperateurScattering}{{9}{9}}
\citation{claeys2020robust}
\@writefile{toc}{\contentsline {subsection}{\numberline {2.3}Algorithme}{10}{}\protected@file@percent }
\citation{claeys2020robust}
\citation{claeys2020robust}
\@writefile{lof}{\contentsline {figure}{\numberline {5}{\ignorespaces Algorithme de résolution de type Richardson distribué sur plusieurs unités de calcul\relax }}{11}{}\protected@file@percent }
\providecommand*\caption@xref[2]{\@setref\relax\@undefined{#1}}
\newlabel{fig:CalcDistrib}{{5}{11}}
\newlabel{borneConv}{{9}{11}}
\newlabel{borneGamma}{{10}{11}}
\newlabel{borneConvH1}{{11}{12}}
\newlabel{borneU}{{10}{12}}
\newlabel{BorneInvU}{{11}{12}}
\@writefile{toc}{\contentsline {subsection}{\numberline {2.4}Un produit scalaire non trivial : le DtN associé au problème positif}{12}{}\protected@file@percent }
\newlabel{pbMinimTrace}{{12}{13}}
\@writefile{toc}{\contentsline {subsection}{\numberline {2.5}Calcul des constantes inf-sup}{13}{}\protected@file@percent }
\@writefile{toc}{\contentsline {subsubsection}{\numberline {2.5.1}Condition de Neumann}{13}{}\protected@file@percent }
\newlabel{eqInfSupNeumann}{{13}{15}}
\@writefile{lof}{\contentsline {figure}{\numberline {6}{\ignorespaces Constante $\qopname  \relax m{inf}\qopname  \relax m{sup}$ analytique pour le problème avec condition de Neumann\relax }}{16}{}\protected@file@percent }
\newlabel{fig:infsupneumann}{{6}{16}}
\@writefile{toc}{\contentsline {section}{\numberline {3}Résultats numériques}{16}{}\protected@file@percent }
\@writefile{lof}{\contentsline {figure}{\numberline {7}{\ignorespaces Spectre de $I+\Pi S$ pour les deux impédances et $J=10$ (à gauche) et $J=100$ (à droite)\relax }}{17}{}\protected@file@percent }
\newlabel{fig:FigSpectre}{{7}{17}}
\@writefile{lof}{\contentsline {figure}{\numberline {8}{\ignorespaces Erreur relative sur la trace en fonction du nombre d'itérations avec impédance induite par le DtN du problème positif\relax }}{18}{}\protected@file@percent }
\newlabel{fig:FigConvZ}{{8}{18}}
\@writefile{lof}{\contentsline {figure}{\numberline {9}{\ignorespaces Erreur relative sur la trace en fonction du nombre d'itérations avec impédance $Z=\omega I$\relax }}{19}{}\protected@file@percent }
\newlabel{fig:FigConvId}{{9}{19}}
\@writefile{lof}{\contentsline {figure}{\numberline {10}{\ignorespaces Nombre d'itérations nécessaire pour atteindre $10^{-4}$ de précision en fonction du nombre de sous-domaines ($Z=\omega \text  {I}$ à gauche et $Z=\text  {DtN}$ à droite)\relax }}{19}{}\protected@file@percent }
\newlabel{fig:FigItBySD}{{10}{19}}
\@writefile{lof}{\contentsline {figure}{\numberline {11}{\ignorespaces Rapport du nombre d'itérations nécessaire pour atteindre $10^{-4}$ de précision en fonction du nombre de sous-domaines entre le $\text  {DtN}$ et l'impédance $Z=\omega I$\relax }}{20}{}\protected@file@percent }
\newlabel{fig:RapportIt}{{11}{20}}
\@writefile{lof}{\contentsline {figure}{\numberline {12}{\ignorespaces Nombre d'itérations nécessaire pour atteindre $10^{-4}$ de précision en fonction de la pulsation ($Z=\omega \text  {I}$ à gauche et $Z=\text  {DtN}$ à droite)\relax }}{20}{}\protected@file@percent }
\newlabel{fig:FigItByFq}{{12}{20}}
\@writefile{lof}{\contentsline {figure}{\numberline {13}{\ignorespaces Nombre d'itérations nécessaire pour atteindre $10^{-4}$ de précision en fonction du nombre de sous-domaines ($Z=2\omega \text  {I}$ à gauche et $Z=3\omega \text  {I}$ à droite)\relax }}{21}{}\protected@file@percent }
\newlabel{fig:FigItBySBMultDiag}{{13}{21}}
\@writefile{lof}{\contentsline {figure}{\numberline {14}{\ignorespaces Nombre d'itérations nécessaire pour atteindre $10^{-4}$ de précision en fonction de la pulsation ($Z=2\omega \text  {I}$ à gauche et $Z=3\omega \text  {I}$ à droite)\relax }}{21}{}\protected@file@percent }
\newlabel{fig:FigItByFqMultDiag}{{14}{21}}
\citation{claeys2020robust}
\citation{claeys2020robust}
\bibdata{biblio}
\bibcite{claeys2019new}{1}
\bibcite{claeys2020robust}{2}
\bibcite{collino:inria-00073216}{3}
\bibcite{despr1991}{4}
\bibcite{lecouvez:tel-01444540}{5}
\bibcite{book}{6}
\bibcite{3b2b99a08d6f484ebb4dca85b332b782}{7}
\bibstyle{plain}
\gdef \@abspage@last{24}
